analyse-R
…
autorisent des noms de colonnes invalides pour les data frames (espaces, caractères spéciaux, nombres…) 1

s’affichent plus intelligemment que les data frames : seules les premières lignes sont affichées, ainsi que quelques informations supplémentaires utiles (dimensions, types des colonnes…)

ne font pas de partial matching sur les noms de colonnes 2

affichent un avertissement si on essaie d’accéder à une colonne qui n’existe pas

Pour autant, les tibbles restent compatibles avec les data frames. On peut ainsi facilement convertir un data frame en tibble avec as_tibble :

library(tidyverse)
as_tibble(mtcars)

# A tibble: 32 x 11
     mpg   cyl  disp    hp  drat    wt  qsec    vs    am  gear  carb
 * <dbl> <dbl> <dbl> <dbl> <dbl> <dbl> <dbl> <dbl> <dbl> <dbl> <dbl>
 1  21.0    6.  160.  110.  3.90  2.62  16.5    0.    1.    4.    4.
 2  21.0    6.  160.  110.  3.90  2.88  17.0    0.    1.    4.    4.
 3  22.8    4.  108.   93.  3.85  2.32  18.6    1.    1.    4.    1.
 4  21.4    6.  258.  110.  3.08  3.22  19.4    1.    0.    3.    1.
 5  18.7    8.  360.  175.  3.15  3.44  17.0    0.    0.    3.    2.
 6  18.1    6.  225.  105.  2.76  3.46  20.2    1.    0.    3.    1.
 7  14.3    8.  360.  245.  3.21  3.57  15.8    0.    0.    3.    4.
 8  24.4    4.  147.   62.  3.69  3.19  20.0    1.    0.    4.    2.
 9  22.8    4.  141.   95.  3.92  3.15  22.9    1.    0.    4.    2.
10  19.2    6.  168.  123.  3.92  3.44  18.3    1.    0.    4.    4.
# ... with 22 more rows

Si le data frame d’origine a des rownames, on peut d’abord les convertir en colonnes avec rownames_to_columns :

d <- as_tibble(rownames_to_column(mtcars))
d

# A tibble: 32 x 12
   rowname      mpg   cyl  disp    hp  drat    wt  qsec    vs    am  gear  carb
   <chr>      <dbl> <dbl> <dbl> <dbl> <dbl> <dbl> <dbl> <dbl> <dbl> <dbl> <dbl>
 1 Mazda RX4   21.0    6.  160.  110.  3.90  2.62  16.5    0.    1.    4.    4.
 2 Mazda RX4~  21.0    6.  160.  110.  3.90  2.88  17.0    0.    1.    4.    4.
 3 Datsun 710  22.8    4.  108.   93.  3.85  2.32  18.6    1.    1.    4.    1.
 4 Hornet 4 ~  21.4    6.  258.  110.  3.08  3.22  19.4    1.    0.    3.    1.
 5 Hornet Sp~  18.7    8.  360.  175.  3.15  3.44  17.0    0.    0.    3.    2.
 6 Valiant     18.1    6.  225.  105.  2.76  3.46  20.2    1.    0.    3.    1.
 7 Duster 360  14.3    8.  360.  245.  3.21  3.57  15.8    0.    0.    3.    4.
 8 Merc 240D   24.4    4.  147.   62.  3.69  3.19  20.0    1.    0.    4.    2.
 9 Merc 230    22.8    4.  141.   95.  3.92  3.15  22.9    1.    0.    4.    2.
10 Merc 280    19.2    6.  168.  123.  3.92  3.44  18.3    1.    0.    4.    4.
# ... with 22 more rows
…
filter

filter sélectionne des lignes d’un tableau de données selon une condition. On lui passe en paramètre un test, et seules les lignes pour lesquelles ce test renvoit TRUE (vrai) sont conservées.

Par exemple, si on veut sélectionner les vols du mois de janvier, on peut filtrer sur la variable month de la manière suivante :

filter(flights, month == 1)

# A tibble: 27,004 x 19
    year month   day dep_time sched_dep_time dep_delay arr_time sched_arr_time
   <int> <int> <int>    <int>          <int>     <dbl>    <int>          <int>
 1  2013     1     1      517            515        2.      830            819
 2  2013     1     1      533            529        4.      850            830
 3  2013     1     1      542            540        2.      923            850
 4  2013     1     1      544            545       -1.     1004           1022
 5  2013     1     1      554            600       -6.      812            837
 6  2013     1     1      554            558       -4.      740            728
 7  2013     1     1      555            600       -5.      913            854
 8  2013     1     1      557            600       -3.      709            723
 9  2013     1     1      557            600       -3.      838            846
10  2013     1     1      558            600       -2.      753            745
# ... with 26,994 more rows, and 11 more variables: arr_delay <dbl>,
#   carrier <chr>, flight <int>, tailnum <chr>, origin <chr>, dest <chr>,
#   air_time <dbl>, distance <dbl>, hour <dbl>, minute <dbl>, time_hour <dttm>

Si on veut uniquement les vols avec un retard au départ (variable dep_delay) compris entre 10 et 15 minutes :

filter(flights, dep_delay >= 10 & dep_delay <= 15)

# A tibble: 14,919 x 19
    year month   day dep_time sched_dep_time dep_delay arr_time sched_arr_time
   <int> <int> <int>    <int>          <int>     <dbl>    <int>          <int>
 1  2013     1     1      611            600       11.      945            931
 2  2013     1     1      623            610       13.      920            915
 3  2013     1     1      743            730       13.     1107           1100
 4  2013     1     1      743            730       13.     1059           1056
 5  2013     1     1      851            840       11.     1215           1206
 6  2013     1     1      912            900       12.     1241           1220
 7  2013     1     1      914            900       14.     1058           1043
 8  2013     1     1      920            905       15.     1039           1025
 9  2013     1     1     1011           1001       10.     1133           1128
10  2013     1     1     1112           1100       12.     1440           1438
# ... with 14,909 more rows, and 11 more variables: arr_delay <dbl>,
#   carrier <chr>, flight <int>, tailnum <chr>, origin <chr>, dest <chr>,
#   air_time <dbl>, distance <dbl>, hour <dbl>, minute <dbl>, time_hour <dttm>

Si on passe plusieurs arguments à filter, celui-ci rajoute automatiquement une condition et entre les conditions. La ligne ci-dessus peut donc également être écrite de la manière suivante, avec le même résultat :

filter(flights, dep_delay >= 10, dep_delay <= 15)

Enfin, on peut également placer des fonctions dans les tests, qui nous permettent par exemple de sélectionner les vols avec la plus grande distance :

filter(flights, distance == max(distance))

# A tibble: 342 x 19
    year month   day dep_time sched_dep_time dep_delay arr_time sched_arr_time
   <int> <int> <int>    <int>          <int>     <dbl>    <int>          <int>
 1  2013     1     1      857            900       -3.     1516           1530
 2  2013     1     2      909            900        9.     1525           1530
 3  2013     1     3      914            900       14.     1504           1530
 4  2013     1     4      900            900        0.     1516           1530
 5  2013     1     5      858            900       -2.     1519           1530
 6  2013     1     6     1019            900       79.     1558           1530
 7  2013     1     7     1042            900      102.     1620           1530
 8  2013     1     8      901            900        1.     1504           1530
 9  2013     1     9      641            900     1301.     1242           1530
10  2013     1    10      859            900       -1.     1449           1530
# ... with 332 more rows, and 11 more variables: arr_delay <dbl>,
#   carrier <chr>, flight <int>, tailnum <chr>, origin <chr>, dest <chr>,
#   air_time <dbl>, distance <dbl>, hour <dbl>, minute <dbl>, time_hour <dttm>

select et rename

select permet de sélectionner des colonnes d’un tableau de données. Ainsi, si on veut extraire les colonnes lat et lon du tableau airports :

select(airports, lat, lon)

# A tibble: 1,458 x 2
     lat    lon
   <dbl>  <dbl>
 1  41.1  -80.6
 2  32.5  -85.7
 3  42.0  -88.1
 4  41.4  -74.4
 5  31.1  -81.4
 6  36.4  -82.2
 7  41.5  -84.5
 8  42.9  -76.8
 9  39.8  -76.6
10  48.1 -123. 
# ... with 1,448 more rows

Si on fait précéder le nom d’un -, la colonne est éliminée plutôt que sélectionnée :

select(airports, -lat, -lon)

# A tibble: 1,458 x 6
   faa   name                             alt    tz dst   tzone              
   <chr> <chr>                          <int> <dbl> <chr> <chr>              
 1 04G   Lansdowne Airport               1044   -5. A     America/New_York   
 2 06A   Moton Field Municipal Airport    264   -6. A     America/Chicago    
 3 06C   Schaumburg Regional              801   -6. A     America/Chicago    
 4 06N   Randall Airport                  523   -5. A     America/New_York   
 5 09J   Jekyll Island Airport             11   -5. A     America/New_York   
 6 0A9   Elizabethton Municipal Airport  1593   -5. A     America/New_York   
 7 0G6   Williams County Airport          730   -5. A     America/New_York   
 8 0G7   Finger Lakes Regional Airport    492   -5. A     America/New_York   
 9 0P2   Shoestring Aviation Airfield    1000   -5. U     America/New_York   
10 0S9   Jefferson County Intl            108   -8. A     America/Los_Angeles
# ... with 1,448 more rows

select comprend toute une série de fonctions facilitant la sélection de multiples colonnes. Par exemple, starts_with, ends_width, contains ou matches permettent d’exprimer des conditions sur les noms de variables :

select(flights, starts_with("dep_"))

# A tibble: 336,776 x 2
   dep_time dep_delay
      <int>     <dbl>
 1      517        2.
 2      533        4.
 3      542        2.
 4      544       -1.
 5      554       -6.
 6      554       -4.
 7      555       -5.
 8      557       -3.
 9      557       -3.
10      558       -2.
# ... with 336,766 more rows

La syntaxe colonne1:colonne2 permet de sélectionner toutes les colonnes situées entre colonne1 et colonne2 incluses1 :

select(flights, year:day)

# A tibble: 336,776 x 3
    year month   day
   <int> <int> <int>
 1  2013     1     1
 2  2013     1     1
 3  2013     1     1
 4  2013     1     1
 5  2013     1     1
 6  2013     1     1
 7  2013     1     1
 8  2013     1     1
 9  2013     1     1
10  2013     1     1
# ... with 336,766 more rows

select peut être utilisée pour réordonner les colonnes d’une table en utilisant la fonction everything(), qui sélectionne l’ensemble des colonnes non encore sélectionnées. Ainsi, si on souhaite faire passer la colonne name en première position de la table airports, on peut faire :

select(airports, name, everything())

# A tibble: 1,458 x 8
   name                           faa     lat    lon   alt    tz dst   tzone   
   <chr>                          <chr> <dbl>  <dbl> <int> <dbl> <chr> <chr>   
 1 Lansdowne Airport              04G    41.1  -80.6  1044   -5. A     America~
 2 Moton Field Municipal Airport  06A    32.5  -85.7   264   -6. A     America~
 3 Schaumburg Regional            06C    42.0  -88.1   801   -6. A     America~
 4 Randall Airport                06N    41.4  -74.4   523   -5. A     America~
 5 Jekyll Island Airport          09J    31.1  -81.4    11   -5. A     America~
 6 Elizabethton Municipal Airport 0A9    36.4  -82.2  1593   -5. A     America~
 7 Williams County Airport        0G6    41.5  -84.5   730   -5. A     America~
 8 Finger Lakes Regional Airport  0G7    42.9  -76.8   492   -5. A     America~
 9 Shoestring Aviation Airfield   0P2    39.8  -76.6  1000   -5. U     America~
10 Jefferson County Intl          0S9    48.1 -123.    108   -8. A     America~
# ... with 1,448 more rows

Une variante de select est rename2, qui permet de renommer facilement des colonnes. On l’utilise en lui passant des paramètres de la forme nouveau_nom = ancien_nom. Ainsi, si on veut renommer les colonnes lon et lat de airports en longitude et latitude :

rename(airports, longitude = lon, latitude = lat)

# A tibble: 1,458 x 8
   faa   name                 latitude longitude   alt    tz dst   tzone       
   <chr> <chr>                   <dbl>     <dbl> <int> <dbl> <chr> <chr>       
 1 04G   Lansdowne Airport        41.1     -80.6  1044   -5. A     America/New~
 2 06A   Moton Field Municip~     32.5     -85.7   264   -6. A     America/Chi~
 3 06C   Schaumburg Regional      42.0     -88.1   801   -6. A     America/Chi~
 4 06N   Randall Airport          41.4     -74.4   523   -5. A     America/New~
 5 09J   Jekyll Island Airpo~     31.1     -81.4    11   -5. A     America/New~
 6 0A9   Elizabethton Munici~     36.4     -82.2  1593   -5. A     America/New~
 7 0G6   Williams County Air~     41.5     -84.5   730   -5. A     America/New~
 8 0G7   Finger Lakes Region~     42.9     -76.8   492   -5. A     America/New~
 9 0P2   Shoestring Aviation~     39.8     -76.6  1000   -5. U     America/New~
10 0S9   Jefferson County In~     48.1    -123.    108   -8. A     America/Los~
# ... with 1,448 more rows

Si les noms de colonnes comportent des espaces ou des caractères spéciaux, on peut les entourer de guillemets (") ou de quotes inverses (`) :

tmp <- rename(flights, 
              "retard départ" = dep_delay,
              "retard arrivée" = arr_delay)
select(tmp, `retard départ`, `retard arrivée`)

# A tibble: 336,776 x 2
   `retard départ` `retard arrivée`
             <dbl>            <dbl>
 1              2.              11.
 2              4.              20.
 3              2.              33.
 4             -1.             -18.
 5             -6.             -25.
 6             -4.              12.
 7             -5.              19.
 8             -3.             -14.
 9             -3.              -8.
10             -2.               8.
# ... with 336,766 more rows

arrange

arrange réordonne les lignes d’un tableau selon une ou plusieurs colonnes.

Ainsi, si on veut trier le tableau flights selon le retard au départ croissant :

arrange(flights, dep_delay)

# A tibble: 336,776 x 19
    year month   day dep_time sched_dep_time dep_delay arr_time sched_arr_time
   <int> <int> <int>    <int>          <int>     <dbl>    <int>          <int>
 1  2013    12     7     2040           2123      -43.       40           2352
 2  2013     2     3     2022           2055      -33.     2240           2338
 3  2013    11    10     1408           1440      -32.     1549           1559
 4  2013     1    11     1900           1930      -30.     2233           2243
 5  2013     1    29     1703           1730      -27.     1947           1957
 6  2013     8     9      729            755      -26.     1002            955
 7  2013    10    23     1907           1932      -25.     2143           2143
 8  2013     3    30     2030           2055      -25.     2213           2250
 9  2013     3     2     1431           1455      -24.     1601           1631
10  2013     5     5      934            958      -24.     1225           1309
# ... with 336,766 more rows, and 11 more variables: arr_delay <dbl>,
#   carrier <chr>, flight <int>, tailnum <chr>, origin <chr>, dest <chr>,
#   air_time <dbl>, distance <dbl>, hour <dbl>, minute <dbl>, time_hour <dttm>

On peut trier selon plusieurs colonnes. Par exemple selon le mois, puis selon le retard au départ :

arrange(flights, month, dep_delay)

# A tibble: 336,776 x 19
    year month   day dep_time sched_dep_time dep_delay arr_time sched_arr_time
   <int> <int> <int>    <int>          <int>     <dbl>    <int>          <int>
 1  2013     1    11     1900           1930      -30.     2233           2243
 2  2013     1    29     1703           1730      -27.     1947           1957
 3  2013     1    12     1354           1416      -22.     1606           1650
 4  2013     1    21     2137           2159      -22.     2232           2316
 5  2013     1    20      704            725      -21.     1025           1035
 6  2013     1    12     2050           2110      -20.     2310           2355
 7  2013     1    12     2134           2154      -20.        4             50
 8  2013     1    14     2050           2110      -20.     2329           2355
 9  2013     1     4     2140           2159      -19.     2241           2316
10  2013     1    11     1947           2005      -18.     2209           2230
# ... with 336,766 more rows, and 11 more variables: arr_delay <dbl>,
#   carrier <chr>, flight <int>, tailnum <chr>, origin <chr>, dest <chr>,
#   air_time <dbl>, distance <dbl>, hour <dbl>, minute <dbl>, time_hour <dttm>

Si on veut trier selon une colonne par ordre décroissant, on lui applique la fonction desc() :

arrange(flights, desc(dep_delay))

# A tibble: 336,776 x 19
    year month   day dep_time sched_dep_time dep_delay arr_time sched_arr_time
   <int> <int> <int>    <int>          <int>     <dbl>    <int>          <int>
 1  2013     1     9      641            900     1301.     1242           1530
 2  2013     6    15     1432           1935     1137.     1607           2120
 3  2013     1    10     1121           1635     1126.     1239           1810
 4  2013     9    20     1139           1845     1014.     1457           2210
 5  2013     7    22      845           1600     1005.     1044           1815
 6  2013     4    10     1100           1900      960.     1342           2211
 7  2013     3    17     2321            810      911.      135           1020
 8  2013     6    27      959           1900      899.     1236           2226
 9  2013     7    22     2257            759      898.      121           1026
10  2013    12     5      756           1700      896.     1058           2020
# ... with 336,766 more rows, and 11 more variables: arr_delay <dbl>,
#   carrier <chr>, flight <int>, tailnum <chr>, origin <chr>, dest <chr>,
#   air_time <dbl>, distance <dbl>, hour <dbl>, minute <dbl>, time_hour <dttm>
…
mutate

mutate permet de créer de nouvelles colonnes dans le tableau de données, en général à partir de variables existantes.

Par exemple, la table airports contient l’altitude de l’aéroport en pieds. Si on veut créer une nouvelle variable alt_m avec l’altitude en mètres, on peut faire :

airports <- mutate(airports, alt_m = alt / 3.2808)
select(airports, name, alt, alt_m)

# A tibble: 1,458 x 3
   name                             alt  alt_m
   <chr>                          <int>  <dbl>
 1 Lansdowne Airport               1044 318.  
 2 Moton Field Municipal Airport    264  80.5 
 3 Schaumburg Regional              801 244.  
 4 Randall Airport                  523 159.  
 5 Jekyll Island Airport             11   3.35
 6 Elizabethton Municipal Airport  1593 486.  
 7 Williams County Airport          730 223.  
 8 Finger Lakes Regional Airport    492 150.  
 9 Shoestring Aviation Airfield    1000 305.  
10 Jefferson County Intl            108  32.9 
# ... with 1,448 more rows

On peut créer plusieurs nouvelles colonnes en une seule fois, et les expressions successives peuvent prendre en compte les résultats des calculs précédents. L’exemple suivant convertit d’abord la distance en kilomètres dans une variable distance_km, puis utilise cette nouvelle colonne pour calculer la vitesse en km/h.

flights <- mutate(flights, 
                  distance_km = distance / 0.62137,
                  vitesse = distance_km / air_time * 60)
select(flights, distance, distance_km, vitesse)

# A tibble: 336,776 x 3
   distance distance_km vitesse
      <dbl>       <dbl>   <dbl>
 1    1400.       2253.    596.
 2    1416.       2279.    602.
 3    1089.       1753.    657.
 4    1576.       2536.    832.
 5     762.       1226.    634.
 6     719.       1157.    463.
 7    1065.       1714.    651.
 8     229.        369.    417.
 9     944.       1519.    651.
10     733.       1180.    513.
# ... with 336,766 more rows
…
